/home/cfuria/misc/rosetta/RosettaCodeData/Task/Grayscale-image/C/grayscale-image-2.c.compile/grayscale-image-2.c:1:1: error: unknown type name ‘grayimage’
/home/cfuria/misc/rosetta/RosettaCodeData/Task/Grayscale-image/C/grayscale-image-2.c.compile/grayscale-image-2.c: In function ‘alloc_grayimg’:
/home/cfuria/misc/rosetta/RosettaCodeData/Task/Grayscale-image/C/grayscale-image-2.c.compile/grayscale-image-2.c:3:6: error: unknown type name ‘grayimage’
/home/cfuria/misc/rosetta/RosettaCodeData/Task/Grayscale-image/C/grayscale-image-2.c.compile/grayscale-image-2.c:4:6: warning: implicit declaration of function ‘malloc’ [-Wimplicit-function-declaration]
/home/cfuria/misc/rosetta/RosettaCodeData/Task/Grayscale-image/C/grayscale-image-2.c.compile/grayscale-image-2.c:4:12: warning: incompatible implicit declaration of built-in function ‘malloc’ [enabled by default]
/home/cfuria/misc/rosetta/RosettaCodeData/Task/Grayscale-image/C/grayscale-image-2.c.compile/grayscale-image-2.c:4:26: error: ‘grayimage_t’ undeclared (first use in this function)
/home/cfuria/misc/rosetta/RosettaCodeData/Task/Grayscale-image/C/grayscale-image-2.c.compile/grayscale-image-2.c:4:26: note: each undeclared identifier is reported only once for each function it appears in
/home/cfuria/misc/rosetta/RosettaCodeData/Task/Grayscale-image/C/grayscale-image-2.c.compile/grayscale-image-2.c:5:9: error: invalid type argument of ‘->’ (have ‘int’)
/home/cfuria/misc/rosetta/RosettaCodeData/Task/Grayscale-image/C/grayscale-image-2.c.compile/grayscale-image-2.c:5:44: error: ‘pixel1’ undeclared (first use in this function)
/home/cfuria/misc/rosetta/RosettaCodeData/Task/Grayscale-image/C/grayscale-image-2.c.compile/grayscale-image-2.c:6:9: error: invalid type argument of ‘->’ (have ‘int’)
/home/cfuria/misc/rosetta/RosettaCodeData/Task/Grayscale-image/C/grayscale-image-2.c.compile/grayscale-image-2.c:7:9: error: invalid type argument of ‘->’ (have ‘int’)
