
http://cloc.sourceforge.net v 1.60  T=0.01 s (138.5 files/s, 3185.6 lines/s)
-------------------------------------------------------------------------------
Language                     files          blank        comment           code
-------------------------------------------------------------------------------
C                                1              4              1             18
-------------------------------------------------------------------------------
