
http://cloc.sourceforge.net v 1.60  T=0.01 s (155.4 files/s, 5283.5 lines/s)
-------------------------------------------------------------------------------
Language                     files          blank        comment           code
-------------------------------------------------------------------------------
C                                1              6              1             27
-------------------------------------------------------------------------------
