/home/cfuria/misc/rosetta/RosettaCodeData/Task/Palindrome-detection/C/palindrome-detection-4.c.compile/palindrome-detection-4.c: In function ‘main’:
/home/cfuria/misc/rosetta/RosettaCodeData/Task/Palindrome-detection/C/palindrome-detection-4.c.compile/palindrome-detection-4.c:11:11: warning: implicit declaration of function ‘palindrome’ [-Wimplicit-function-declaration]
/home/cfuria/misc/rosetta/RosettaCodeData/Task/Palindrome-detection/C/palindrome-detection-4.c.compile/palindrome-detection-4.c:13:11: warning: implicit declaration of function ‘palindrome_r’ [-Wimplicit-function-declaration]
/tmp/cc7ZPOlM.o: In function `main':
palindrome-detection-4.c:(.text.startup+0x18): undefined reference to `palindrome'
palindrome-detection-4.c:(.text.startup+0x4a): undefined reference to `palindrome_r'
collect2: ld returned 1 exit status
