
http://cloc.sourceforge.net v 1.60  T=0.01 s (159.9 files/s, 1758.9 lines/s)
-------------------------------------------------------------------------------
Language                     files          blank        comment           code
-------------------------------------------------------------------------------
C                                1              1              0             10
-------------------------------------------------------------------------------
