
http://cloc.sourceforge.net v 1.60  T=0.01 s (150.6 files/s, 8436.2 lines/s)
-------------------------------------------------------------------------------
Language                     files          blank        comment           code
-------------------------------------------------------------------------------
C                                1              6              0             50
-------------------------------------------------------------------------------
