
http://cloc.sourceforge.net v 1.60  T=0.01 s (158.2 files/s, 2215.2 lines/s)
-------------------------------------------------------------------------------
Language                     files          blank        comment           code
-------------------------------------------------------------------------------
C                                1              1              5              8
-------------------------------------------------------------------------------
