
http://cloc.sourceforge.net v 1.60  T=0.01 s (155.9 files/s, 5456.1 lines/s)
-------------------------------------------------------------------------------
Language                     files          blank        comment           code
-------------------------------------------------------------------------------
C                                1              7              0             28
-------------------------------------------------------------------------------
