
http://cloc.sourceforge.net v 1.60  T=0.01 s (160.8 files/s, 643.2 lines/s)
-------------------------------------------------------------------------------
Language                     files          blank        comment           code
-------------------------------------------------------------------------------
C                                1              0              0              4
-------------------------------------------------------------------------------
