
http://cloc.sourceforge.net v 1.60  T=0.01 s (159.8 files/s, 2236.7 lines/s)
-------------------------------------------------------------------------------
Language                     files          blank        comment           code
-------------------------------------------------------------------------------
C                                1              3              0             11
-------------------------------------------------------------------------------
