
http://cloc.sourceforge.net v 1.60  T=0.01 s (159.4 files/s, 2550.2 lines/s)
-------------------------------------------------------------------------------
Language                     files          blank        comment           code
-------------------------------------------------------------------------------
C                                1              1              0             15
-------------------------------------------------------------------------------
