/home/cfuria/misc/rosetta/RosettaCodeData/Task/Pascals-triangle/C/pascals-triangle-3.c.compile/pascals-triangle-3.c: In function ‘triangleC’:
/home/cfuria/misc/rosetta/RosettaCodeData/Task/Pascals-triangle/C/pascals-triangle-3.c.compile/pascals-triangle-3.c:3:20: error: ‘NULL’ undeclared (first use in this function)
/home/cfuria/misc/rosetta/RosettaCodeData/Task/Pascals-triangle/C/pascals-triangle-3.c.compile/pascals-triangle-3.c:3:20: note: each undeclared identifier is reported only once for each function it appears in
/home/cfuria/misc/rosetta/RosettaCodeData/Task/Pascals-triangle/C/pascals-triangle-3.c.compile/pascals-triangle-3.c:5:9: warning: implicit declaration of function ‘malloc’ [-Wimplicit-function-declaration]
/home/cfuria/misc/rosetta/RosettaCodeData/Task/Pascals-triangle/C/pascals-triangle-3.c.compile/pascals-triangle-3.c:5:24: warning: incompatible implicit declaration of built-in function ‘malloc’ [enabled by default]
/home/cfuria/misc/rosetta/RosettaCodeData/Task/Pascals-triangle/C/pascals-triangle-3.c.compile/pascals-triangle-3.c:9:13: warning: implicit declaration of function ‘printf’ [-Wimplicit-function-declaration]
/home/cfuria/misc/rosetta/RosettaCodeData/Task/Pascals-triangle/C/pascals-triangle-3.c.compile/pascals-triangle-3.c:9:13: warning: incompatible implicit declaration of built-in function ‘printf’ [enabled by default]
/home/cfuria/misc/rosetta/RosettaCodeData/Task/Pascals-triangle/C/pascals-triangle-3.c.compile/pascals-triangle-3.c:11:9: warning: incompatible implicit declaration of built-in function ‘printf’ [enabled by default]
/home/cfuria/misc/rosetta/RosettaCodeData/Task/Pascals-triangle/C/pascals-triangle-3.c.compile/pascals-triangle-3.c:12:9: warning: implicit declaration of function ‘free’ [-Wimplicit-function-declaration]
/home/cfuria/misc/rosetta/RosettaCodeData/Task/Pascals-triangle/C/pascals-triangle-3.c.compile/pascals-triangle-3.c:12:9: warning: incompatible implicit declaration of built-in function ‘free’ [enabled by default]
/home/cfuria/misc/rosetta/RosettaCodeData/Task/Pascals-triangle/C/pascals-triangle-3.c.compile/pascals-triangle-3.c:15:5: warning: incompatible implicit declaration of built-in function ‘free’ [enabled by default]
