
http://cloc.sourceforge.net v 1.60  T=0.01 s (158.5 files/s, 3487.7 lines/s)
-------------------------------------------------------------------------------
Language                     files          blank        comment           code
-------------------------------------------------------------------------------
C                                1              3              2             17
-------------------------------------------------------------------------------
