
http://cloc.sourceforge.net v 1.60  T=0.01 s (150.2 files/s, 9462.2 lines/s)
-------------------------------------------------------------------------------
Language                     files          blank        comment           code
-------------------------------------------------------------------------------
C                                1             13              0             50
-------------------------------------------------------------------------------
