
http://cloc.sourceforge.net v 1.60  T=0.01 s (137.5 files/s, 18706.8 lines/s)
-------------------------------------------------------------------------------
Language                     files          blank        comment           code
-------------------------------------------------------------------------------
C                                1             19              0            117
-------------------------------------------------------------------------------
