
http://cloc.sourceforge.net v 1.60  T=0.01 s (143.9 files/s, 14242.9 lines/s)
-------------------------------------------------------------------------------
Language                     files          blank        comment           code
-------------------------------------------------------------------------------
C                                1             16              4             79
-------------------------------------------------------------------------------
