
http://cloc.sourceforge.net v 1.60  T=0.02 s (41.3 files/s, 1155.8 lines/s)
-------------------------------------------------------------------------------
Language                     files          blank        comment           code
-------------------------------------------------------------------------------
C                                1              5              0             23
-------------------------------------------------------------------------------
