
http://cloc.sourceforge.net v 1.60  T=0.01 s (144.5 files/s, 12718.3 lines/s)
-------------------------------------------------------------------------------
Language                     files          blank        comment           code
-------------------------------------------------------------------------------
C                                1             18              3             67
-------------------------------------------------------------------------------
