
http://cloc.sourceforge.net v 1.60  T=0.03 s (39.2 files/s, 705.2 lines/s)
-------------------------------------------------------------------------------
Language                     files          blank        comment           code
-------------------------------------------------------------------------------
C                                1              4              2             12
-------------------------------------------------------------------------------
