/home/cfuria/misc/rosetta/RosettaCodeData/Task/Loops-While/C/loops-while-2.c.compile/loops-while-2.c:2:1: error: expected identifier or ‘(’ before ‘for’
/home/cfuria/misc/rosetta/RosettaCodeData/Task/Loops-While/C/loops-while-2.c.compile/loops-while-2.c:2:16: error: expected ‘=’, ‘,’, ‘;’, ‘asm’ or ‘__attribute__’ before ‘>’ token
/home/cfuria/misc/rosetta/RosettaCodeData/Task/Loops-While/C/loops-while-2.c.compile/loops-while-2.c:2:22: error: expected ‘=’, ‘,’, ‘;’, ‘asm’ or ‘__attribute__’ before ‘/=’ token
