/home/cfuria/misc/rosetta/RosettaCodeData/Task/Bitmap-Flood-fill/C/bitmap-flood-fill.c.compile/bitmap-flood-fill.c: In function ‘f’:
/home/cfuria/misc/rosetta/RosettaCodeData/Task/Bitmap-Flood-fill/C/bitmap-flood-fill.c.compile/bitmap-flood-fill.c:8:17: error: ‘iYmax’ undeclared (first use in this function)
/home/cfuria/misc/rosetta/RosettaCodeData/Task/Bitmap-Flood-fill/C/bitmap-flood-fill.c.compile/bitmap-flood-fill.c:8:17: note: each undeclared identifier is reported only once for each function it appears in
/home/cfuria/misc/rosetta/RosettaCodeData/Task/Bitmap-Flood-fill/C/bitmap-flood-fill.c.compile/bitmap-flood-fill.c:8:30: error: ‘iXmax’ undeclared (first use in this function)
/home/cfuria/misc/rosetta/RosettaCodeData/Task/Bitmap-Flood-fill/C/bitmap-flood-fill.c.compile/bitmap-flood-fill.c: In function ‘FillContour’:
/home/cfuria/misc/rosetta/RosettaCodeData/Task/Bitmap-Flood-fill/C/bitmap-flood-fill.c.compile/bitmap-flood-fill.c:39:22: error: ‘iInterior’ undeclared (first use in this function)
/home/cfuria/misc/rosetta/RosettaCodeData/Task/Bitmap-Flood-fill/C/bitmap-flood-fill.c.compile/bitmap-flood-fill.c:60:20: error: ‘iJulia’ undeclared (first use in this function)
/home/cfuria/misc/rosetta/RosettaCodeData/Task/Bitmap-Flood-fill/C/bitmap-flood-fill.c.compile/bitmap-flood-fill.c:62:16: error: ‘iYmax’ undeclared (first use in this function)
/home/cfuria/misc/rosetta/RosettaCodeData/Task/Bitmap-Flood-fill/C/bitmap-flood-fill.c.compile/bitmap-flood-fill.c:99:20: error: ‘iXmax’ undeclared (first use in this function)
/home/cfuria/misc/rosetta/RosettaCodeData/Task/Bitmap-Flood-fill/C/bitmap-flood-fill.c.compile/bitmap-flood-fill.c: At top level:
/home/cfuria/misc/rosetta/RosettaCodeData/Task/Bitmap-Flood-fill/C/bitmap-flood-fill.c.compile/bitmap-flood-fill.c:109:3: error: unknown type name ‘color_component’
/home/cfuria/misc/rosetta/RosettaCodeData/Task/Bitmap-Flood-fill/C/bitmap-flood-fill.c.compile/bitmap-flood-fill.c:113:16: error: unknown type name ‘image’
/home/cfuria/misc/rosetta/RosettaCodeData/Task/Bitmap-Flood-fill/C/bitmap-flood-fill.c.compile/bitmap-flood-fill.c:116:20: fatal error: imglib.h: No such file or directory
compilation terminated.
