/home/cfuria/misc/rosetta/RosettaCodeData/Task/Bitmap-Flood-fill/C/bitmap-flood-fill-1.c.compile/bitmap-flood-fill-1.c: In function ‘f’:
/home/cfuria/misc/rosetta/RosettaCodeData/Task/Bitmap-Flood-fill/C/bitmap-flood-fill-1.c.compile/bitmap-flood-fill-1.c:8:17: error: ‘iYmax’ undeclared (first use in this function)
/home/cfuria/misc/rosetta/RosettaCodeData/Task/Bitmap-Flood-fill/C/bitmap-flood-fill-1.c.compile/bitmap-flood-fill-1.c:8:17: note: each undeclared identifier is reported only once for each function it appears in
/home/cfuria/misc/rosetta/RosettaCodeData/Task/Bitmap-Flood-fill/C/bitmap-flood-fill-1.c.compile/bitmap-flood-fill-1.c:8:30: error: ‘iXmax’ undeclared (first use in this function)
/home/cfuria/misc/rosetta/RosettaCodeData/Task/Bitmap-Flood-fill/C/bitmap-flood-fill-1.c.compile/bitmap-flood-fill-1.c: In function ‘FillContour’:
/home/cfuria/misc/rosetta/RosettaCodeData/Task/Bitmap-Flood-fill/C/bitmap-flood-fill-1.c.compile/bitmap-flood-fill-1.c:39:22: error: ‘iInterior’ undeclared (first use in this function)
/home/cfuria/misc/rosetta/RosettaCodeData/Task/Bitmap-Flood-fill/C/bitmap-flood-fill-1.c.compile/bitmap-flood-fill-1.c:60:20: error: ‘iJulia’ undeclared (first use in this function)
/home/cfuria/misc/rosetta/RosettaCodeData/Task/Bitmap-Flood-fill/C/bitmap-flood-fill-1.c.compile/bitmap-flood-fill-1.c:62:16: error: ‘iYmax’ undeclared (first use in this function)
/home/cfuria/misc/rosetta/RosettaCodeData/Task/Bitmap-Flood-fill/C/bitmap-flood-fill-1.c.compile/bitmap-flood-fill-1.c:99:20: error: ‘iXmax’ undeclared (first use in this function)
