
http://cloc.sourceforge.net v 1.60  T=0.01 s (162.3 files/s, 162.3 lines/s)
-------------------------------------------------------------------------------
Language                     files          blank        comment           code
-------------------------------------------------------------------------------
C                                1              0              0              1
-------------------------------------------------------------------------------
