
http://cloc.sourceforge.net v 1.60  T=0.01 s (163.5 files/s, 163.5 lines/s)
-------------------------------------------------------------------------------
Language                     files          blank        comment           code
-------------------------------------------------------------------------------
C                                1              0              0              1
-------------------------------------------------------------------------------
