
http://cloc.sourceforge.net v 1.60  T=0.01 s (153.3 files/s, 6286.5 lines/s)
-------------------------------------------------------------------------------
Language                     files          blank        comment           code
-------------------------------------------------------------------------------
C                                1              6              0             35
-------------------------------------------------------------------------------
