/home/cfuria/misc/rosetta/RosettaCodeData/Task/Symmetric-difference/C/symmetric-difference-2.c.compile/symmetric-difference-2.c:12:1: error: initializer element is not constant
/home/cfuria/misc/rosetta/RosettaCodeData/Task/Symmetric-difference/C/symmetric-difference-2.c.compile/symmetric-difference-2.c:12:1: error: (near initialization for ‘setA[0]’)
/home/cfuria/misc/rosetta/RosettaCodeData/Task/Symmetric-difference/C/symmetric-difference-2.c.compile/symmetric-difference-2.c:12:1: error: initializer element is not constant
/home/cfuria/misc/rosetta/RosettaCodeData/Task/Symmetric-difference/C/symmetric-difference-2.c.compile/symmetric-difference-2.c:12:1: error: (near initialization for ‘setA[1]’)
/home/cfuria/misc/rosetta/RosettaCodeData/Task/Symmetric-difference/C/symmetric-difference-2.c.compile/symmetric-difference-2.c:12:1: error: initializer element is not constant
/home/cfuria/misc/rosetta/RosettaCodeData/Task/Symmetric-difference/C/symmetric-difference-2.c.compile/symmetric-difference-2.c:12:1: error: (near initialization for ‘setA[2]’)
/home/cfuria/misc/rosetta/RosettaCodeData/Task/Symmetric-difference/C/symmetric-difference-2.c.compile/symmetric-difference-2.c:12:1: error: initializer element is not constant
/home/cfuria/misc/rosetta/RosettaCodeData/Task/Symmetric-difference/C/symmetric-difference-2.c.compile/symmetric-difference-2.c:12:1: error: (near initialization for ‘setA[3]’)
/home/cfuria/misc/rosetta/RosettaCodeData/Task/Symmetric-difference/C/symmetric-difference-2.c.compile/symmetric-difference-2.c:13:1: error: initializer element is not constant
/home/cfuria/misc/rosetta/RosettaCodeData/Task/Symmetric-difference/C/symmetric-difference-2.c.compile/symmetric-difference-2.c:13:1: error: (near initialization for ‘setB[0]’)
/home/cfuria/misc/rosetta/RosettaCodeData/Task/Symmetric-difference/C/symmetric-difference-2.c.compile/symmetric-difference-2.c:13:1: error: initializer element is not constant
/home/cfuria/misc/rosetta/RosettaCodeData/Task/Symmetric-difference/C/symmetric-difference-2.c.compile/symmetric-difference-2.c:13:1: error: (near initialization for ‘setB[1]’)
/home/cfuria/misc/rosetta/RosettaCodeData/Task/Symmetric-difference/C/symmetric-difference-2.c.compile/symmetric-difference-2.c:13:1: error: initializer element is not constant
/home/cfuria/misc/rosetta/RosettaCodeData/Task/Symmetric-difference/C/symmetric-difference-2.c.compile/symmetric-difference-2.c:13:1: error: (near initialization for ‘setB[2]’)
/home/cfuria/misc/rosetta/RosettaCodeData/Task/Symmetric-difference/C/symmetric-difference-2.c.compile/symmetric-difference-2.c:13:1: error: initializer element is not constant
/home/cfuria/misc/rosetta/RosettaCodeData/Task/Symmetric-difference/C/symmetric-difference-2.c.compile/symmetric-difference-2.c:13:1: error: (near initialization for ‘setB[3]’)
