
http://cloc.sourceforge.net v 1.60  T=0.01 s (122.1 files/s, 31513.2 lines/s)
-------------------------------------------------------------------------------
Language                     files          blank        comment           code
-------------------------------------------------------------------------------
C                                1             44             20            194
-------------------------------------------------------------------------------
