
http://cloc.sourceforge.net v 1.60  T=0.01 s (151.3 files/s, 7263.9 lines/s)
-------------------------------------------------------------------------------
Language                     files          blank        comment           code
-------------------------------------------------------------------------------
C                                1             10              4             34
-------------------------------------------------------------------------------
