
http://cloc.sourceforge.net v 1.60  T=0.01 s (153.7 files/s, 6300.8 lines/s)
-------------------------------------------------------------------------------
Language                     files          blank        comment           code
-------------------------------------------------------------------------------
C                                1              9              0             32
-------------------------------------------------------------------------------
