
http://cloc.sourceforge.net v 1.60  T=0.01 s (154.8 files/s, 4643.1 lines/s)
-------------------------------------------------------------------------------
Language                     files          blank        comment           code
-------------------------------------------------------------------------------
C                                1              3              4             23
-------------------------------------------------------------------------------
