/home/cfuria/misc/rosetta/RosettaCodeData/Task/Sorting-algorithms-Counting-sort/C/sorting-algorithms-counting-sort-2.c.compile/sorting-algorithms-counting-sort-2.c: In function ‘main’:
/home/cfuria/misc/rosetta/RosettaCodeData/Task/Sorting-algorithms-Counting-sort/C/sorting-algorithms-counting-sort-2.c.compile/sorting-algorithms-counting-sort-2.c:7:3: warning: implicit declaration of function ‘rand’ [-Wimplicit-function-declaration]
/home/cfuria/misc/rosetta/RosettaCodeData/Task/Sorting-algorithms-Counting-sort/C/sorting-algorithms-counting-sort-2.c.compile/sorting-algorithms-counting-sort-2.c:8:3: warning: implicit declaration of function ‘counting_sort_mm’ [-Wimplicit-function-declaration]
/home/cfuria/misc/rosetta/RosettaCodeData/Task/Sorting-algorithms-Counting-sort/C/sorting-algorithms-counting-sort-2.c.compile/sorting-algorithms-counting-sort-2.c:9:3: warning: implicit declaration of function ‘printf’ [-Wimplicit-function-declaration]
/home/cfuria/misc/rosetta/RosettaCodeData/Task/Sorting-algorithms-Counting-sort/C/sorting-algorithms-counting-sort-2.c.compile/sorting-algorithms-counting-sort-2.c:9:24: warning: incompatible implicit declaration of built-in function ‘printf’ [enabled by default]
/home/cfuria/misc/rosetta/RosettaCodeData/Task/Sorting-algorithms-Counting-sort/C/sorting-algorithms-counting-sort-2.c.compile/sorting-algorithms-counting-sort-2.c:10:10: error: ‘EXIT_SUCCESS’ undeclared (first use in this function)
/home/cfuria/misc/rosetta/RosettaCodeData/Task/Sorting-algorithms-Counting-sort/C/sorting-algorithms-counting-sort-2.c.compile/sorting-algorithms-counting-sort-2.c:10:10: note: each undeclared identifier is reported only once for each function it appears in
