
http://cloc.sourceforge.net v 1.60  T=0.01 s (152.0 files/s, 7445.6 lines/s)
-------------------------------------------------------------------------------
Language                     files          blank        comment           code
-------------------------------------------------------------------------------
C                                1              9              3             37
-------------------------------------------------------------------------------
