
http://cloc.sourceforge.net v 1.60  T=0.01 s (138.8 files/s, 5413.6 lines/s)
-------------------------------------------------------------------------------
Language                     files          blank        comment           code
-------------------------------------------------------------------------------
C                                1              5              2             32
-------------------------------------------------------------------------------
