
http://cloc.sourceforge.net v 1.60  T=0.01 s (152.1 files/s, 7603.3 lines/s)
-------------------------------------------------------------------------------
Language                     files          blank        comment           code
-------------------------------------------------------------------------------
C                                1             10              5             35
-------------------------------------------------------------------------------
