
http://cloc.sourceforge.net v 1.60  T=0.01 s (135.8 files/s, 8013.0 lines/s)
-------------------------------------------------------------------------------
Language                     files          blank        comment           code
-------------------------------------------------------------------------------
C                                1             15              5             39
-------------------------------------------------------------------------------
