
http://cloc.sourceforge.net v 1.60  T=0.01 s (149.0 files/s, 9535.2 lines/s)
-------------------------------------------------------------------------------
Language                     files          blank        comment           code
-------------------------------------------------------------------------------
C                                1             12              2             50
-------------------------------------------------------------------------------
