
http://cloc.sourceforge.net v 1.60  T=0.01 s (146.1 files/s, 11103.0 lines/s)
-------------------------------------------------------------------------------
Language                     files          blank        comment           code
-------------------------------------------------------------------------------
C                                1             10              9             57
-------------------------------------------------------------------------------
