
http://cloc.sourceforge.net v 1.60  T=0.01 s (160.6 files/s, 1606.2 lines/s)
-------------------------------------------------------------------------------
Language                     files          blank        comment           code
-------------------------------------------------------------------------------
C                                1              1              0              9
-------------------------------------------------------------------------------
