
http://cloc.sourceforge.net v 1.60  T=0.01 s (142.9 files/s, 13720.0 lines/s)
-------------------------------------------------------------------------------
Language                     files          blank        comment           code
-------------------------------------------------------------------------------
C                                1             17              5             74
-------------------------------------------------------------------------------
