	b=3 digit 2
	b=3 d= 1 | 5
	b=3 d= 2 | 23
	b=4 digit 2
	b=4 digit 3
	b=4 d= 1 | 7
	b=4 d= 2 | 23
	b=4 d= 3 | 151
	b=4 d= 4 | 919
	b=4 d= 5 | 3691
	b=4 d= 5 | 4091
	b=5 digit 2
	b=5 d= 1 | 7
	b=5 d= 2 | 107
	b=5 d= 3 | 607
	b=5 d= 4 | 1567
	b=5 d= 5 | 7817
	b=5 digit 3
	b=6 digit 2
	b=6 digit 3
	b=6 digit 5
	b=6 d= 1 | 11
	b=6 d= 2 | 47
	b=6 d= 3 | 263
	b=6 d= 4 | 1559
	b=6 d= 4 | 6959
	b=6 d= 5 | 22511
	b=6 d= 6 | 115823
	b=6 d= 7 | 639839
	b=6 d= 7 | 1199711
	b=6 d= 8 | 4558943
	b=6 d= 8 | 6238559
	b=6 d= 9 | 26393951
	b=6 d= 9 | 46041563
	b=6 d= 9 | 49921787
	b=6 d=10 | 291786491
	b=6 d=11 | 562564853
	b=6 d=11 | 895128821
	b=6 d=11 | 1450779179
	b=6 d=12 | 12334690859
	b=6 d=13 | 38456078891
	b=6 d=13 | 68133995339
	b=6 d=14 | 224862323531
	b=6 d=15 | 1635417277259
	b=6 d=15 | 2015415412943
	b=6 d=16 | 4836525320399
	b=7 digit 2
	b=7 d= 1 | 23
	b=7 d= 2 | 317
	b=7 d= 3 | 919
	b=7 d= 3 | 2389
	b=7 digit 3
	b=7 d= 4 | 10601
	b=7 d= 5 | 111443
	b=7 d= 6 | 817337
	b=7 digit 5
	b=8 digit 2
	b=8 digit 3
	b=8 d= 1 | 11
	b=8 d= 2 | 139
	b=8 d= 3 | 1163
	b=8 d= 4 | 13451
	b=8 d= 5 | 46219
	b=8 d= 5 | 149323
	b=8 d= 6 | 1722187
	b=8 d= 6 | 1984331
	b=8 d= 7 | 10372939
	b=8 d= 8 | 127813451
	b=8 d= 9 | 307722059
	b=8 d=10 | 5676431179
	b=8 d=10 | 6826752083
	b=8 d=11 | 13395897811
	b=8 digit 5
	b=8 d=11 | 22927812197
	b=8 d=11 | 55827932773
	b=8 d=12 | 124547409509
	b=8 d=12 | 261755420669
	b=8 d=13 | 811511234557
	b=8 d=14 | 14005650767869
	b=8 digit 7
	b=9 digit 2
	b=9 d= 1 | 11
	b=9 d= 2 | 173
	b=9 d= 3 | 3089
	b=9 d= 4 | 29333
	b=9 d= 5 | 383627
	b=9 d= 6 | 1446509
	b=9 d= 6 | 3350657
	b=9 d= 7 | 41614409
	b=9 d= 8 | 213801293
	b=9 d= 9 | 988642271
	b=9 digit 3
	b=9 digit 5
	b=9 d= 9 | 1676456897
	b=9 digit 7
	b=10 digit 2
	b=10 digit 3
	b=10 d= 1 | 13
	b=10 d= 2 | 113
	b=10 d= 3 | 2113
	b=10 d= 4 | 12113
	b=10 d= 5 | 612113
	b=10 d= 6 | 9326113
	b=10 d= 7 | 69326113
	b=10 d= 8 | 469326113
	b=10 d= 9 | 2469326113
	b=10 d= 9 | 5469326113
	b=10 d=10 | 15469326113
	b=10 d=10 | 92769326113
	b=10 d=11 | 768769326113
	b=10 d=11 | 842979956113
	b=10 d=12 | 3842979956113
	b=10 d=13 | 73842979956113
	b=10 d=14 | 249872979956113
	b=10 d=15 | 4249872979956113
	b=10 d=16 | 34249872979956113
	b=10 d=16 | 78615345451813613
	b=10 d=16 | 98615345451813613
	b=10 d=17 | 198615345451813613
	b=10 d=17 | 639763986391564373
	b=10 d=18 | 3484957213536676883
	b=10 d=18 | 6484957213536676883
	b=10 d=19 | 36484957213536676883
	b=10 digit 5
	b=10 digit 7
	b=10 d=19 | 67986315421273233617
	b=10 d=20 | 367986315421273233617
	b=10 d=20 | 686312646216567629137
	b=10 d=21 | 6686312646216567629137
	b=10 d=22 | 96686312646216567629137
	b=10 d=23 | 357686312646216567629137
	b=11 digit 2
	b=11 d= 1 | 13
	b=11 d= 2 | 739
	b=11 d= 2 | 1223
	b=11 d= 3 | 6547
	b=11 d= 4 | 65111
	b=11 d= 4 | 126337
	b=11 d= 5 | 1092643
	b=11 digit 3
	b=11 digit 5
	b=11 d= 5 | 1118837
	b=11 d= 6 | 4661959
	b=11 d= 7 | 43636301
	b=11 digit 7
	b=11 d= 7 | 132416863
	b=11 d= 8 | 2276005673
	b=12 digit 2
	b=12 digit 3
	b=12 digit 5
	b=12 d= 1 | 17
	b=12 d= 2 | 449
	b=12 d= 3 | 16001
	b=12 d= 4 | 140417
	b=12 d= 5 | 638081
	b=12 d= 6 | 6610049
	b=12 d= 7 | 400759937
	b=12 d= 8 | 830741633
	b=12 d= 9 | 11150302337
	b=12 d=10 | 192172596353
	b=12 d=11 | 935180967041
	b=12 d=12 | 45515683208321
	b=12 d=13 | 580481710103681
	b=12 d=14 | 3148318639201409
	b=12 d=14 | 9567910961945729
	b=12 d=15 | 86603018834877569
	b=12 d=16 | 1011024313310059649
	b=12 d=17 | 16541302060493118593
	b=12 d=18 | 68493778809998351489
	b=12 d=18 | 150229312181643582593
	b=12 d=18 | 203475978743414070401
	b=12 d=18 | 272259100817562232961
	b=12 d=19 | 3786539093894414428289
	b=12 d=20 | 25513141960980135864449
	b=12 d=21 | 209533621598458941728897
	b=12 d=21 | 266319855315932674786433
	b=12 d=22 | 3026627049878114762753153
	b=12 d=23 | 16276101583776588784993409
	b=12 d=23 | 24181901065808833473194561
	b=12 d=23 | 30806638332758070484314689
	b=12 d=24 | 825775110366666511818730049
	b=12 d=25 | 4420870507140128585947714049
	b=12 d=25 | 9190681339343579233954206209
	b=12 d=26 | 16548379502127405517366336817
	b=12 d=26 | 115895305409131005505834354601
	b=12 d=27 | 1158575953328805317160053540777
	b=12 d=28 | 2807022576938317861111097231273
	b=12 digit 7
	b=12 d=28 | 13517765466350834216886838458067
	b=12 d=28 | 16952029265537318683451512813267
	b=12 d=29 | 36733388748851469210864037099219
	b=12 d=30 | 1698367585347240113513516077119187
	b=12 d=31 | 13092430647736190817303130065827539
	b=12 digit 11
	b=13 digit 2
	b=13 d= 1 | 41
	b=13 d= 2 | 379
	b=13 d= 3 | 22349
	b=13 d= 4 | 250837
	b=13 d= 5 | 4706353
	b=13 d= 6 | 24013589
	b=13 d= 6 | 62628061
	b=13 digit 3
	b=13 d= 7 | 419057161
	b=13 d= 7 | 670051229
	b=13 digit 5
	b=13 d= 7 | 812751503
	b=13 digit 7
	b=13 digit 11
	b=14 digit 2
	b=14 digit 3
	b=14 d= 1 | 17
	b=14 d= 2 | 409
	b=14 d= 3 | 5897
	b=14 d= 4 | 82729
	b=14 d= 5 | 3309673
	b=14 d= 6 | 10839209
	b=14 d= 7 | 1381214761
	b=14 d= 8 | 5808581929
	b=14 d= 9 | 171096956201
	b=14 d=10 | 1906624886057
	b=14 d=11 | 26204015904041
	b=14 d=12 | 366367490155817
	b=14 d=12 | 479755314906409
	b=14 d=13 | 5741322170738857
	b=14 d=13 | 8122466490501289
	b=14 d=14 | 135230218035914921
	b=14 d=15 | 1690911173614037161
	b=14 d=16 | 23470444551707748521
	b=14 d=17 | 222895156236821936521
	b=14 d=18 | 5280864324287217147401
	b=14 d=19 | 67419070826977714138493
	b=14 d=20 | 569428603378686523501949
	b=14 d=20 | 1084371635127869013011803
	b=14 d=21 | 15140638546575715675188571
	b=14 d=22 | 129933484990066463416298843
	b=14 d=23 | 1507447642311955436309622107
	b=14 d=24 | 30435244946071623867069410651
	b=14 d=25 | 615419590422100474355767356763
	b=14 digit 5
	b=14 digit 7
	b=14 digit 11
	b=14 digit 13
	b=15 digit 2
	b=15 d= 1 | 17
	b=15 d= 2 | 467
	b=15 d= 3 | 13967
	b=15 d= 4 | 317717
	b=15 d= 5 | 1836467
	b=15 d= 6 | 161305217
	b=15 d= 7 | 1869898967
	b=15 d= 8 | 36593080217
	b=15 d= 9 | 421026673967
	b=15 d=10 | 5034229798967
	b=15 d=10 | 8628539803217
	b=15 d=11 | 60527074959467
	b=15 d=12 | 1098497778084467
	b=15 d=12 | 1686681176521967
	b=15 d=13 | 28933412133553217
	b=15 d=14 | 134025188134998617
	b=15 d=14 | 367568596338123617
	b=15 d=14 | 433739228662342367
	b=15 d=15 | 2185314790185779867
	b=15 d=15 | 3570419796612011117
	b=15 d=16 | 69254503353740917367
	b=15 d=16 | 82391320065166698617
	b=15 d=17 | 870600322750713573617
	b=15 d=18 | 12467840501449444042367
	b=15 d=18 | 19158279971497362714167
	b=15 d=18 | 22168294796092520789237
	b=15 digit 3
	b=15 digit 5
	b=15 digit 7
	b=15 d=19 | 272186341668609669063937
	b=15 d=20 | 845568923012932697284117
	b=15 d=20 | 2761310904040154376971617
	b=15 digit 11
	b=15 d=20 | 4141335135210804537129941
	b=15 d=21 | 34068645705927662447286191
	b=15 digit 13
	b=16 digit 2
	b=16 digit 3
	b=16 d= 1 | 19
	b=16 d= 2 | 787
	b=16 d= 3 | 49939
	b=16 d= 4 | 312083
	b=16 d= 4 | 901907
	b=16 d= 5 | 13484819
	b=16 d= 5 | 16630547
	b=16 d= 6 | 100516627
	b=16 d= 7 | 1979564819
	b=16 d= 8 | 62109106963
	b=16 d= 9 | 336987013907
	b=16 d=10 | 2536010269459
	b=16 d=10 | 12431614919443
	b=16 d=11 | 65208173052691
	b=16 d=11 | 82800359097107
	b=16 d=12 | 1490175242650387
	b=16 d=13 | 42022571888984851
	b=16 d=14 | 461983237141283603
	b=16 d=15 | 10838276778602906387
	b=16 d=15 | 16602884301637141267
	b=16 d=16 | 44734980930823149331
	b=16 d=17 | 4471953558621115537171
	b=16 d=18 | 32806152455838986819347
	b=16 d=18 | 51695618387317567674131
	b=16 d=18 | 58669531733368663022099
	b=16 d=19 | 787527620106039673838867
	b=16 d=20 | 3205379259335298023251219
	b=16 d=21 | 196633510397675965976239379
	b=16 d=22 | 815603530040366103425801491
	b=16 d=23 | 60236725415738619298583764243
	b=16 d=24 | 1088303707153521644968345559987
	b=16 digit 5
	b=16 digit 7
	b=16 digit 11
	b=16 digit 13
	b=17 digit 2
	b=17 d= 1 | 19
	b=17 d= 2 | 1753
	b=17 d= 3 | 11579
	b=17 d= 4 | 178621
	b=17 d= 4 | 679747
	b=17 d= 4 | 1180873
	b=17 d= 5 | 4020587
	b=17 d= 6 | 148846001
	b=17 d= 7 | 1790200693
	b=17 d= 7 | 5072910077
	b=17 d= 8 | 46927454723
	b=17 d= 8 | 102733514251
	b=17 d= 9 | 814260773233
	b=17 digit 3
	b=17 d= 9 | 1274762021899
	b=17 d= 9 | 1467678180407
	b=17 d=10 | 13563641583101
	b=17 digit 5
	b=17 digit 7
	b=17 digit 11
	b=17 digit 13
