
http://cloc.sourceforge.net v 1.60  T=0.01 s (152.6 files/s, 6105.9 lines/s)
-------------------------------------------------------------------------------
Language                     files          blank        comment           code
-------------------------------------------------------------------------------
C                                1              5              0             35
-------------------------------------------------------------------------------
