
http://cloc.sourceforge.net v 1.60  T=0.01 s (158.6 files/s, 2378.4 lines/s)
-------------------------------------------------------------------------------
Language                     files          blank        comment           code
-------------------------------------------------------------------------------
C                                1              3              0             12
-------------------------------------------------------------------------------
