
http://cloc.sourceforge.net v 1.60  T=0.01 s (151.6 files/s, 7427.8 lines/s)
-------------------------------------------------------------------------------
Language                     files          blank        comment           code
-------------------------------------------------------------------------------
C                                1              5             13             31
-------------------------------------------------------------------------------
