/home/cfuria/misc/rosetta/RosettaCodeData/Task/Safe-addition/C/safe-addition-2.c.compile/safe-addition-2.c: In function ‘safe_add’:
/home/cfuria/misc/rosetta/RosettaCodeData/Task/Safe-addition/C/safe-addition-2.c.compile/safe-addition-2.c:14:2: warning: implicit declaration of function ‘_controlfp’ [-Wimplicit-function-declaration]
/home/cfuria/misc/rosetta/RosettaCodeData/Task/Safe-addition/C/safe-addition-2.c.compile/safe-addition-2.c:15:13: error: ‘_RC_DOWN’ undeclared (first use in this function)
/home/cfuria/misc/rosetta/RosettaCodeData/Task/Safe-addition/C/safe-addition-2.c.compile/safe-addition-2.c:15:13: note: each undeclared identifier is reported only once for each function it appears in
/home/cfuria/misc/rosetta/RosettaCodeData/Task/Safe-addition/C/safe-addition-2.c.compile/safe-addition-2.c:15:23: error: ‘_MCW_RC’ undeclared (first use in this function)
/home/cfuria/misc/rosetta/RosettaCodeData/Task/Safe-addition/C/safe-addition-2.c.compile/safe-addition-2.c:17:13: error: ‘_RC_UP’ undeclared (first use in this function)
