
http://cloc.sourceforge.net v 1.60  T=0.01 s (154.6 files/s, 5257.4 lines/s)
-------------------------------------------------------------------------------
Language                     files          blank        comment           code
-------------------------------------------------------------------------------
C                                1              3              2             29
-------------------------------------------------------------------------------
