
http://cloc.sourceforge.net v 1.60  T=0.01 s (135.2 files/s, 19204.6 lines/s)
-------------------------------------------------------------------------------
Language                     files          blank        comment           code
-------------------------------------------------------------------------------
C                                1             23             10            109
-------------------------------------------------------------------------------
