
http://cloc.sourceforge.net v 1.60  T=0.01 s (156.3 files/s, 3750.6 lines/s)
-------------------------------------------------------------------------------
Language                     files          blank        comment           code
-------------------------------------------------------------------------------
C                                1              3              0             21
-------------------------------------------------------------------------------
