
http://cloc.sourceforge.net v 1.60  T=0.01 s (144.2 files/s, 10380.5 lines/s)
-------------------------------------------------------------------------------
Language                     files          blank        comment           code
-------------------------------------------------------------------------------
C                                1              6              0             66
-------------------------------------------------------------------------------
