
http://cloc.sourceforge.net v 1.60  T=0.01 s (161.3 files/s, 806.7 lines/s)
-------------------------------------------------------------------------------
Language                     files          blank        comment           code
-------------------------------------------------------------------------------
C                                1              0              0              5
-------------------------------------------------------------------------------
