
http://cloc.sourceforge.net v 1.60  T=0.01 s (159.0 files/s, 3339.8 lines/s)
-------------------------------------------------------------------------------
Language                     files          blank        comment           code
-------------------------------------------------------------------------------
C                                1              4              0             17
-------------------------------------------------------------------------------
