
http://cloc.sourceforge.net v 1.60  T=0.01 s (157.8 files/s, 3945.7 lines/s)
-------------------------------------------------------------------------------
Language                     files          blank        comment           code
-------------------------------------------------------------------------------
C                                1              4              0             21
-------------------------------------------------------------------------------
