
http://cloc.sourceforge.net v 1.60  T=0.01 s (152.9 files/s, 6879.7 lines/s)
-------------------------------------------------------------------------------
Language                     files          blank        comment           code
-------------------------------------------------------------------------------
C                                1              8             13             24
-------------------------------------------------------------------------------
