
http://cloc.sourceforge.net v 1.60  T=0.01 s (154.2 files/s, 5242.1 lines/s)
-------------------------------------------------------------------------------
Language                     files          blank        comment           code
-------------------------------------------------------------------------------
C                                1              4              0             30
-------------------------------------------------------------------------------
