
http://cloc.sourceforge.net v 1.60  T=0.01 s (155.4 files/s, 4661.9 lines/s)
-------------------------------------------------------------------------------
Language                     files          blank        comment           code
-------------------------------------------------------------------------------
C                                1              2              0             28
-------------------------------------------------------------------------------
