
http://cloc.sourceforge.net v 1.60  T=0.01 s (140.5 files/s, 16015.8 lines/s)
-------------------------------------------------------------------------------
Language                     files          blank        comment           code
-------------------------------------------------------------------------------
C                                1             18              4             92
-------------------------------------------------------------------------------
