globally-replace-text-in-several-files.c.compile: Can't open 'test1.txt': No such file or directory
globally-replace-text-in-several-files.c.compile: Can't open 'test2.txt': No such file or directory
globally-replace-text-in-several-files.c.compile: Can't open 'test3.txt': No such file or directory
