
http://cloc.sourceforge.net v 1.60  T=0.01 s (145.2 files/s, 11764.6 lines/s)
-------------------------------------------------------------------------------
Language                     files          blank        comment           code
-------------------------------------------------------------------------------
C                                1             11              0             70
-------------------------------------------------------------------------------
