
http://cloc.sourceforge.net v 1.60  T=0.01 s (142.3 files/s, 13096.1 lines/s)
-------------------------------------------------------------------------------
Language                     files          blank        comment           code
-------------------------------------------------------------------------------
C                                1             11              5             76
-------------------------------------------------------------------------------
