/home/cfuria/misc/rosetta/RosettaCodeData/Task/Bulls-and-cows/C/bulls-and-cows-2.c.compile/bulls-and-cows-2.c:1:1: error: unknown type name ‘bool’
/home/cfuria/misc/rosetta/RosettaCodeData/Task/Bulls-and-cows/C/bulls-and-cows-2.c.compile/bulls-and-cows-2.c: In function ‘take_it_or_not’:
/home/cfuria/misc/rosetta/RosettaCodeData/Task/Bulls-and-cows/C/bulls-and-cows-2.c.compile/bulls-and-cows-2.c:7:10: error: ‘number’ undeclared (first use in this function)
/home/cfuria/misc/rosetta/RosettaCodeData/Task/Bulls-and-cows/C/bulls-and-cows-2.c.compile/bulls-and-cows-2.c:7:10: note: each undeclared identifier is reported only once for each function it appears in
/home/cfuria/misc/rosetta/RosettaCodeData/Task/Bulls-and-cows/C/bulls-and-cows-2.c.compile/bulls-and-cows-2.c:7:23: error: ‘guess’ undeclared (first use in this function)
/home/cfuria/misc/rosetta/RosettaCodeData/Task/Bulls-and-cows/C/bulls-and-cows-2.c.compile/bulls-and-cows-2.c:9:5: warning: implicit declaration of function ‘strchr’ [-Wimplicit-function-declaration]
/home/cfuria/misc/rosetta/RosettaCodeData/Task/Bulls-and-cows/C/bulls-and-cows-2.c.compile/bulls-and-cows-2.c:9:17: warning: incompatible implicit declaration of built-in function ‘strchr’ [enabled by default]
/home/cfuria/misc/rosetta/RosettaCodeData/Task/Bulls-and-cows/C/bulls-and-cows-2.c.compile/bulls-and-cows-2.c:9:45: error: ‘NULL’ undeclared (first use in this function)
/home/cfuria/misc/rosetta/RosettaCodeData/Task/Bulls-and-cows/C/bulls-and-cows-2.c.compile/bulls-and-cows-2.c:13:3: warning: implicit declaration of function ‘move’ [-Wimplicit-function-declaration]
/home/cfuria/misc/rosetta/RosettaCodeData/Task/Bulls-and-cows/C/bulls-and-cows-2.c.compile/bulls-and-cows-2.c:13:8: error: ‘yp’ undeclared (first use in this function)
/home/cfuria/misc/rosetta/RosettaCodeData/Task/Bulls-and-cows/C/bulls-and-cows-2.c.compile/bulls-and-cows-2.c:13:12: error: ‘xp’ undeclared (first use in this function)
/home/cfuria/misc/rosetta/RosettaCodeData/Task/Bulls-and-cows/C/bulls-and-cows-2.c.compile/bulls-and-cows-2.c:14:3: warning: implicit declaration of function ‘addstr’ [-Wimplicit-function-declaration]
/home/cfuria/misc/rosetta/RosettaCodeData/Task/Bulls-and-cows/C/bulls-and-cows-2.c.compile/bulls-and-cows-2.c:14:3: warning: implicit declaration of function ‘addch’ [-Wimplicit-function-declaration]
/home/cfuria/misc/rosetta/RosettaCodeData/Task/Bulls-and-cows/C/bulls-and-cows-2.c.compile/bulls-and-cows-2.c:15:36: error: ‘true’ undeclared (first use in this function)
/home/cfuria/misc/rosetta/RosettaCodeData/Task/Bulls-and-cows/C/bulls-and-cows-2.c.compile/bulls-and-cows-2.c:20:13: error: ‘LAST_LINE’ undeclared (first use in this function)
/home/cfuria/misc/rosetta/RosettaCodeData/Task/Bulls-and-cows/C/bulls-and-cows-2.c.compile/bulls-and-cows-2.c:21:10: error: ‘LINE_BEGIN’ undeclared (first use in this function)
/home/cfuria/misc/rosetta/RosettaCodeData/Task/Bulls-and-cows/C/bulls-and-cows-2.c.compile/bulls-and-cows-2.c:24:10: error: ‘false’ undeclared (first use in this function)
/home/cfuria/misc/rosetta/RosettaCodeData/Task/Bulls-and-cows/C/bulls-and-cows-2.c.compile/bulls-and-cows-2.c: At top level:
/home/cfuria/misc/rosetta/RosettaCodeData/Task/Bulls-and-cows/C/bulls-and-cows-2.c.compile/bulls-and-cows-2.c:27:1: error: unknown type name ‘bool’
/home/cfuria/misc/rosetta/RosettaCodeData/Task/Bulls-and-cows/C/bulls-and-cows-2.c.compile/bulls-and-cows-2.c: In function ‘ask_play_again’:
/home/cfuria/misc/rosetta/RosettaCodeData/Task/Bulls-and-cows/C/bulls-and-cows-2.c.compile/bulls-and-cows-2.c:31:9: error: ‘yp’ undeclared (first use in this function)
/home/cfuria/misc/rosetta/RosettaCodeData/Task/Bulls-and-cows/C/bulls-and-cows-2.c.compile/bulls-and-cows-2.c:31:17: error: ‘LINE_BEGIN’ undeclared (first use in this function)
/home/cfuria/misc/rosetta/RosettaCodeData/Task/Bulls-and-cows/C/bulls-and-cows-2.c.compile/bulls-and-cows-2.c:32:5: warning: implicit declaration of function ‘clrtoeol’ [-Wimplicit-function-declaration]
/home/cfuria/misc/rosetta/RosettaCodeData/Task/Bulls-and-cows/C/bulls-and-cows-2.c.compile/bulls-and-cows-2.c:34:20: error: ‘xp’ undeclared (first use in this function)
/home/cfuria/misc/rosetta/RosettaCodeData/Task/Bulls-and-cows/C/bulls-and-cows-2.c.compile/bulls-and-cows-2.c:38:9: error: ‘true’ undeclared (first use in this function)
/home/cfuria/misc/rosetta/RosettaCodeData/Task/Bulls-and-cows/C/bulls-and-cows-2.c.compile/bulls-and-cows-2.c:39:5: warning: implicit declaration of function ‘getch’ [-Wimplicit-function-declaration]
/home/cfuria/misc/rosetta/RosettaCodeData/Task/Bulls-and-cows/C/bulls-and-cows-2.c.compile/bulls-and-cows-2.c:46:14: error: ‘false’ undeclared (first use in this function)
/home/cfuria/misc/rosetta/RosettaCodeData/Task/Bulls-and-cows/C/bulls-and-cows-2.c.compile/bulls-and-cows-2.c: In function ‘main’:
/home/cfuria/misc/rosetta/RosettaCodeData/Task/Bulls-and-cows/C/bulls-and-cows-2.c.compile/bulls-and-cows-2.c:54:3: error: unknown type name ‘bool’
/home/cfuria/misc/rosetta/RosettaCodeData/Task/Bulls-and-cows/C/bulls-and-cows-2.c.compile/bulls-and-cows-2.c:57:3: warning: implicit declaration of function ‘initscr’ [-Wimplicit-function-declaration]
/home/cfuria/misc/rosetta/RosettaCodeData/Task/Bulls-and-cows/C/bulls-and-cows-2.c.compile/bulls-and-cows-2.c:57:3: warning: implicit declaration of function ‘cbreak’ [-Wimplicit-function-declaration]
/home/cfuria/misc/rosetta/RosettaCodeData/Task/Bulls-and-cows/C/bulls-and-cows-2.c.compile/bulls-and-cows-2.c:57:3: warning: implicit declaration of function ‘noecho’ [-Wimplicit-function-declaration]
/home/cfuria/misc/rosetta/RosettaCodeData/Task/Bulls-and-cows/C/bulls-and-cows-2.c.compile/bulls-and-cows-2.c:58:3: warning: implicit declaration of function ‘clear’ [-Wimplicit-function-declaration]
/home/cfuria/misc/rosetta/RosettaCodeData/Task/Bulls-and-cows/C/bulls-and-cows-2.c.compile/bulls-and-cows-2.c:60:3: error: ‘number’ undeclared (first use in this function)
/home/cfuria/misc/rosetta/RosettaCodeData/Task/Bulls-and-cows/C/bulls-and-cows-2.c.compile/bulls-and-cows-2.c:60:15: error: ‘guess’ undeclared (first use in this function)
/home/cfuria/misc/rosetta/RosettaCodeData/Task/Bulls-and-cows/C/bulls-and-cows-2.c.compile/bulls-and-cows-2.c:62:3: warning: implicit declaration of function ‘mvaddstr’ [-Wimplicit-function-declaration]
/home/cfuria/misc/rosetta/RosettaCodeData/Task/Bulls-and-cows/C/bulls-and-cows-2.c.compile/bulls-and-cows-2.c:68:5: warning: implicit declaration of function ‘srand’ [-Wimplicit-function-declaration]
/home/cfuria/misc/rosetta/RosettaCodeData/Task/Bulls-and-cows/C/bulls-and-cows-2.c.compile/bulls-and-cows-2.c:68:5: warning: implicit declaration of function ‘time’ [-Wimplicit-function-declaration]
/home/cfuria/misc/rosetta/RosettaCodeData/Task/Bulls-and-cows/C/bulls-and-cows-2.c.compile/bulls-and-cows-2.c:68:16: error: ‘NULL’ undeclared (first use in this function)
/home/cfuria/misc/rosetta/RosettaCodeData/Task/Bulls-and-cows/C/bulls-and-cows-2.c.compile/bulls-and-cows-2.c:69:5: warning: implicit declaration of function ‘choose_the_number’ [-Wimplicit-function-declaration]
/home/cfuria/misc/rosetta/RosettaCodeData/Task/Bulls-and-cows/C/bulls-and-cows-2.c.compile/bulls-and-cows-2.c:71:7: warning: implicit declaration of function ‘ask_for_a_number’ [-Wimplicit-function-declaration]
/home/cfuria/misc/rosetta/RosettaCodeData/Task/Bulls-and-cows/C/bulls-and-cows-2.c.compile/bulls-and-cows-2.c:74:32: error: ‘MAX_NUM_TRIES’ undeclared (first use in this function)
/home/cfuria/misc/rosetta/RosettaCodeData/Task/Bulls-and-cows/C/bulls-and-cows-2.c.compile/bulls-and-cows-2.c:76:7: warning: implicit declaration of function ‘mvaddstrf’ [-Wimplicit-function-declaration]
/home/cfuria/misc/rosetta/RosettaCodeData/Task/Bulls-and-cows/C/bulls-and-cows-2.c.compile/bulls-and-cows-2.c:83:3: warning: implicit declaration of function ‘nocbreak’ [-Wimplicit-function-declaration]
/home/cfuria/misc/rosetta/RosettaCodeData/Task/Bulls-and-cows/C/bulls-and-cows-2.c.compile/bulls-and-cows-2.c:83:3: warning: implicit declaration of function ‘echo’ [-Wimplicit-function-declaration]
/home/cfuria/misc/rosetta/RosettaCodeData/Task/Bulls-and-cows/C/bulls-and-cows-2.c.compile/bulls-and-cows-2.c:83:3: warning: implicit declaration of function ‘endwin’ [-Wimplicit-function-declaration]
/home/cfuria/misc/rosetta/RosettaCodeData/Task/Bulls-and-cows/C/bulls-and-cows-2.c.compile/bulls-and-cows-2.c:84:10: error: ‘EXIT_SUCCESS’ undeclared (first use in this function)
