
http://cloc.sourceforge.net v 1.60  T=0.01 s (136.3 files/s, 6541.2 lines/s)
-------------------------------------------------------------------------------
Language                     files          blank        comment           code
-------------------------------------------------------------------------------
C                                1              5              2             41
-------------------------------------------------------------------------------
