
http://cloc.sourceforge.net v 1.60  T=0.01 s (160.3 files/s, 1763.1 lines/s)
-------------------------------------------------------------------------------
Language                     files          blank        comment           code
-------------------------------------------------------------------------------
C                                1              2              0              9
-------------------------------------------------------------------------------
