
http://cloc.sourceforge.net v 1.60  T=0.01 s (132.7 files/s, 18712.1 lines/s)
-------------------------------------------------------------------------------
Language                     files          blank        comment           code
-------------------------------------------------------------------------------
C                                1             15              0            126
-------------------------------------------------------------------------------
