
http://cloc.sourceforge.net v 1.60  T=0.01 s (117.9 files/s, 31604.4 lines/s)
-------------------------------------------------------------------------------
Language                     files          blank        comment           code
-------------------------------------------------------------------------------
C                                1             32             42            194
-------------------------------------------------------------------------------
