/home/cfuria/misc/rosetta/RosettaCodeData/Task/Honeycombs/C/honeycombs.c.compile/honeycombs.c: In function ‘key_press_event’:
/home/cfuria/misc/rosetta/RosettaCodeData/Task/Honeycombs/C/honeycombs.c.compile/honeycombs.c:190:3: warning: implicit declaration of function ‘gdk_event_get_keyval’ [-Wimplicit-function-declaration]
/tmp/ccdcd0t5.o: In function `key_press_event':
honeycombs.c:(.text+0xe9): undefined reference to `gdk_event_get_keyval'
collect2: ld returned 1 exit status
