
http://cloc.sourceforge.net v 1.60  T=0.01 s (143.2 files/s, 14889.2 lines/s)
-------------------------------------------------------------------------------
Language                     files          blank        comment           code
-------------------------------------------------------------------------------
C                                1             16              2             86
-------------------------------------------------------------------------------
