/home/cfuria/misc/rosetta/RosettaCodeData/Task/Kaprekar-numbers/C/kaprekar-numbers-1.c.compile/kaprekar-numbers-1.c: In function ‘main’:
/home/cfuria/misc/rosetta/RosettaCodeData/Task/Kaprekar-numbers/C/kaprekar-numbers-1.c.compile/kaprekar-numbers-1.c:44:4: warning: format ‘%llu’ expects argument of type ‘long long unsigned int’, but argument 3 has type ‘ulong’ [-Wformat]
/home/cfuria/misc/rosetta/RosettaCodeData/Task/Kaprekar-numbers/C/kaprekar-numbers-1.c.compile/kaprekar-numbers-1.c:50:4: warning: format ‘%llu’ expects argument of type ‘long long unsigned int’, but argument 3 has type ‘ulong’ [-Wformat]
