/home/cfuria/misc/rosetta/RosettaCodeData/Task/Active-Directory-Connect/C/active-directory-connect.c.compile/active-directory-connect.c:2:1: error: expected identifier or ‘(’ before ‘...’ token
/home/cfuria/misc/rosetta/RosettaCodeData/Task/Active-Directory-Connect/C/active-directory-connect.c.compile/active-directory-connect.c:4:1: error: expected identifier or ‘(’ before ‘...’ token
/home/cfuria/misc/rosetta/RosettaCodeData/Task/Active-Directory-Connect/C/active-directory-connect.c.compile/active-directory-connect.c:6:1: warning: data definition has no type or storage class [enabled by default]
/home/cfuria/misc/rosetta/RosettaCodeData/Task/Active-Directory-Connect/C/active-directory-connect.c.compile/active-directory-connect.c:6:1: warning: type defaults to ‘int’ in declaration of ‘ldap_simple_bind_s’ [enabled by default]
/home/cfuria/misc/rosetta/RosettaCodeData/Task/Active-Directory-Connect/C/active-directory-connect.c.compile/active-directory-connect.c:6:1: warning: parameter names (without types) in function declaration [enabled by default]
/home/cfuria/misc/rosetta/RosettaCodeData/Task/Active-Directory-Connect/C/active-directory-connect.c.compile/active-directory-connect.c:7:1: error: expected identifier or ‘(’ before ‘...’ token
