
http://cloc.sourceforge.net v 1.60  T=0.01 s (146.1 files/s, 12125.6 lines/s)
-------------------------------------------------------------------------------
Language                     files          blank        comment           code
-------------------------------------------------------------------------------
C                                1             15              1             67
-------------------------------------------------------------------------------
