/home/cfuria/misc/rosetta/RosettaCodeData/Task/Percentage-difference-between-images/C/percentage-difference-between-images.c.compile/percentage-difference-between-images.c: In function ‘main’:
/home/cfuria/misc/rosetta/RosettaCodeData/Task/Percentage-difference-between-images/C/percentage-difference-between-images.c.compile/percentage-difference-between-images.c:13:4: error: unknown type name ‘image’
/home/cfuria/misc/rosetta/RosettaCodeData/Task/Percentage-difference-between-images/C/percentage-difference-between-images.c.compile/percentage-difference-between-images.c:22:4: warning: implicit declaration of function ‘read_image’ [-Wimplicit-function-declaration]
/home/cfuria/misc/rosetta/RosettaCodeData/Task/Percentage-difference-between-images/C/percentage-difference-between-images.c.compile/percentage-difference-between-images.c:23:13: warning: comparison between pointer and integer [enabled by default]
/home/cfuria/misc/rosetta/RosettaCodeData/Task/Percentage-difference-between-images/C/percentage-difference-between-images.c.compile/percentage-difference-between-images.c:25:13: warning: comparison between pointer and integer [enabled by default]
/home/cfuria/misc/rosetta/RosettaCodeData/Task/Percentage-difference-between-images/C/percentage-difference-between-images.c.compile/percentage-difference-between-images.c:25:4: warning: implicit declaration of function ‘free_img’ [-Wimplicit-function-declaration]
/home/cfuria/misc/rosetta/RosettaCodeData/Task/Percentage-difference-between-images/C/percentage-difference-between-images.c.compile/percentage-difference-between-images.c:26:13: error: invalid type argument of ‘->’ (have ‘int’)
/home/cfuria/misc/rosetta/RosettaCodeData/Task/Percentage-difference-between-images/C/percentage-difference-between-images.c.compile/percentage-difference-between-images.c:26:27: error: invalid type argument of ‘->’ (have ‘int’)
/home/cfuria/misc/rosetta/RosettaCodeData/Task/Percentage-difference-between-images/C/percentage-difference-between-images.c.compile/percentage-difference-between-images.c:26:43: error: invalid type argument of ‘->’ (have ‘int’)
/home/cfuria/misc/rosetta/RosettaCodeData/Task/Percentage-difference-between-images/C/percentage-difference-between-images.c.compile/percentage-difference-between-images.c:26:58: error: invalid type argument of ‘->’ (have ‘int’)
/home/cfuria/misc/rosetta/RosettaCodeData/Task/Percentage-difference-between-images/C/percentage-difference-between-images.c.compile/percentage-difference-between-images.c:31:23: error: invalid type argument of ‘->’ (have ‘int’)
/home/cfuria/misc/rosetta/RosettaCodeData/Task/Percentage-difference-between-images/C/percentage-difference-between-images.c.compile/percentage-difference-between-images.c:33:26: error: invalid type argument of ‘->’ (have ‘int’)
/home/cfuria/misc/rosetta/RosettaCodeData/Task/Percentage-difference-between-images/C/percentage-difference-between-images.c.compile/percentage-difference-between-images.c:35:31: error: invalid type argument of ‘->’ (have ‘int’)
/home/cfuria/misc/rosetta/RosettaCodeData/Task/Percentage-difference-between-images/C/percentage-difference-between-images.c.compile/percentage-difference-between-images.c:35:31: error: invalid type argument of ‘->’ (have ‘int’)
/home/cfuria/misc/rosetta/RosettaCodeData/Task/Percentage-difference-between-images/C/percentage-difference-between-images.c.compile/percentage-difference-between-images.c:35:61: error: invalid type argument of ‘->’ (have ‘int’)
/home/cfuria/misc/rosetta/RosettaCodeData/Task/Percentage-difference-between-images/C/percentage-difference-between-images.c.compile/percentage-difference-between-images.c:35:61: error: invalid type argument of ‘->’ (have ‘int’)
/home/cfuria/misc/rosetta/RosettaCodeData/Task/Percentage-difference-between-images/C/percentage-difference-between-images.c.compile/percentage-difference-between-images.c:36:31: error: invalid type argument of ‘->’ (have ‘int’)
/home/cfuria/misc/rosetta/RosettaCodeData/Task/Percentage-difference-between-images/C/percentage-difference-between-images.c.compile/percentage-difference-between-images.c:36:31: error: invalid type argument of ‘->’ (have ‘int’)
/home/cfuria/misc/rosetta/RosettaCodeData/Task/Percentage-difference-between-images/C/percentage-difference-between-images.c.compile/percentage-difference-between-images.c:36:63: error: invalid type argument of ‘->’ (have ‘int’)
/home/cfuria/misc/rosetta/RosettaCodeData/Task/Percentage-difference-between-images/C/percentage-difference-between-images.c.compile/percentage-difference-between-images.c:36:63: error: invalid type argument of ‘->’ (have ‘int’)
/home/cfuria/misc/rosetta/RosettaCodeData/Task/Percentage-difference-between-images/C/percentage-difference-between-images.c.compile/percentage-difference-between-images.c:37:31: error: invalid type argument of ‘->’ (have ‘int’)
/home/cfuria/misc/rosetta/RosettaCodeData/Task/Percentage-difference-between-images/C/percentage-difference-between-images.c.compile/percentage-difference-between-images.c:37:31: error: invalid type argument of ‘->’ (have ‘int’)
/home/cfuria/misc/rosetta/RosettaCodeData/Task/Percentage-difference-between-images/C/percentage-difference-between-images.c.compile/percentage-difference-between-images.c:37:62: error: invalid type argument of ‘->’ (have ‘int’)
/home/cfuria/misc/rosetta/RosettaCodeData/Task/Percentage-difference-between-images/C/percentage-difference-between-images.c.compile/percentage-difference-between-images.c:37:62: error: invalid type argument of ‘->’ (have ‘int’)
/home/cfuria/misc/rosetta/RosettaCodeData/Task/Percentage-difference-between-images/C/percentage-difference-between-images.c.compile/percentage-difference-between-images.c:40:55: error: invalid type argument of ‘->’ (have ‘int’)
/home/cfuria/misc/rosetta/RosettaCodeData/Task/Percentage-difference-between-images/C/percentage-difference-between-images.c.compile/percentage-difference-between-images.c:40:68: error: invalid type argument of ‘->’ (have ‘int’)
