
http://cloc.sourceforge.net v 1.60  T=0.01 s (159.3 files/s, 1911.4 lines/s)
-------------------------------------------------------------------------------
Language                     files          blank        comment           code
-------------------------------------------------------------------------------
C                                1              1              0             11
-------------------------------------------------------------------------------
