/home/cfuria/misc/rosetta/RosettaCodeData/Task/Quaternion-type/C/quaternion-type-2.c.compile/quaternion-type-2.c: In function ‘main’:
/home/cfuria/misc/rosetta/RosettaCodeData/Task/Quaternion-type/C/quaternion-type-2.c.compile/quaternion-type-2.c:3:3: error: unknown type name ‘size_t’
/home/cfuria/misc/rosetta/RosettaCodeData/Task/Quaternion-type/C/quaternion-type-2.c.compile/quaternion-type-2.c:5:3: error: unknown type name ‘quaternion_t’
/home/cfuria/misc/rosetta/RosettaCodeData/Task/Quaternion-type/C/quaternion-type-2.c.compile/quaternion-type-2.c:6:3: error: unknown type name ‘quaternion_t’
/home/cfuria/misc/rosetta/RosettaCodeData/Task/Quaternion-type/C/quaternion-type-2.c.compile/quaternion-type-2.c:6:3: warning: implicit declaration of function ‘quaternion_new’ [-Wimplicit-function-declaration]
/home/cfuria/misc/rosetta/RosettaCodeData/Task/Quaternion-type/C/quaternion-type-2.c.compile/quaternion-type-2.c:6:22: warning: initialization makes pointer from integer without a cast [enabled by default]
/home/cfuria/misc/rosetta/RosettaCodeData/Task/Quaternion-type/C/quaternion-type-2.c.compile/quaternion-type-2.c:8:3: error: unknown type name ‘quaternion_t’
/home/cfuria/misc/rosetta/RosettaCodeData/Task/Quaternion-type/C/quaternion-type-2.c.compile/quaternion-type-2.c:8:3: warning: implicit declaration of function ‘quaternion_new_set’ [-Wimplicit-function-declaration]
/home/cfuria/misc/rosetta/RosettaCodeData/Task/Quaternion-type/C/quaternion-type-2.c.compile/quaternion-type-2.c:8:22: warning: initialization makes pointer from integer without a cast [enabled by default]
/home/cfuria/misc/rosetta/RosettaCodeData/Task/Quaternion-type/C/quaternion-type-2.c.compile/quaternion-type-2.c:9:8: warning: assignment makes pointer from integer without a cast [enabled by default]
/home/cfuria/misc/rosetta/RosettaCodeData/Task/Quaternion-type/C/quaternion-type-2.c.compile/quaternion-type-2.c:10:8: warning: assignment makes pointer from integer without a cast [enabled by default]
/home/cfuria/misc/rosetta/RosettaCodeData/Task/Quaternion-type/C/quaternion-type-2.c.compile/quaternion-type-2.c:11:8: warning: assignment makes pointer from integer without a cast [enabled by default]
/home/cfuria/misc/rosetta/RosettaCodeData/Task/Quaternion-type/C/quaternion-type-2.c.compile/quaternion-type-2.c:13:3: warning: implicit declaration of function ‘printf’ [-Wimplicit-function-declaration]
/home/cfuria/misc/rosetta/RosettaCodeData/Task/Quaternion-type/C/quaternion-type-2.c.compile/quaternion-type-2.c:13:3: warning: incompatible implicit declaration of built-in function ‘printf’ [enabled by default]
/home/cfuria/misc/rosetta/RosettaCodeData/Task/Quaternion-type/C/quaternion-type-2.c.compile/quaternion-type-2.c:17:5: warning: implicit declaration of function ‘quaternion_print’ [-Wimplicit-function-declaration]
/home/cfuria/misc/rosetta/RosettaCodeData/Task/Quaternion-type/C/quaternion-type-2.c.compile/quaternion-type-2.c:18:5: warning: implicit declaration of function ‘quaternion_norm’ [-Wimplicit-function-declaration]
/home/cfuria/misc/rosetta/RosettaCodeData/Task/Quaternion-type/C/quaternion-type-2.c.compile/quaternion-type-2.c:18:5: warning: format ‘%lf’ expects argument of type ‘double’, but argument 3 has type ‘int’ [-Wformat]
/home/cfuria/misc/rosetta/RosettaCodeData/Task/Quaternion-type/C/quaternion-type-2.c.compile/quaternion-type-2.c:22:3: warning: implicit declaration of function ‘quaternion_neg’ [-Wimplicit-function-declaration]
/home/cfuria/misc/rosetta/RosettaCodeData/Task/Quaternion-type/C/quaternion-type-2.c.compile/quaternion-type-2.c:26:3: warning: implicit declaration of function ‘quaternion_conj’ [-Wimplicit-function-declaration]
/home/cfuria/misc/rosetta/RosettaCodeData/Task/Quaternion-type/C/quaternion-type-2.c.compile/quaternion-type-2.c:30:3: warning: implicit declaration of function ‘quaternion_add’ [-Wimplicit-function-declaration]
/home/cfuria/misc/rosetta/RosettaCodeData/Task/Quaternion-type/C/quaternion-type-2.c.compile/quaternion-type-2.c:39:3: warning: implicit declaration of function ‘quaternion_mul_d’ [-Wimplicit-function-declaration]
/home/cfuria/misc/rosetta/RosettaCodeData/Task/Quaternion-type/C/quaternion-type-2.c.compile/quaternion-type-2.c:43:3: warning: implicit declaration of function ‘quaternion_mul’ [-Wimplicit-function-declaration]
/home/cfuria/misc/rosetta/RosettaCodeData/Task/Quaternion-type/C/quaternion-type-2.c.compile/quaternion-type-2.c:56:3: warning: implicit declaration of function ‘free’ [-Wimplicit-function-declaration]
/home/cfuria/misc/rosetta/RosettaCodeData/Task/Quaternion-type/C/quaternion-type-2.c.compile/quaternion-type-2.c:56:3: warning: incompatible implicit declaration of built-in function ‘free’ [enabled by default]
/home/cfuria/misc/rosetta/RosettaCodeData/Task/Quaternion-type/C/quaternion-type-2.c.compile/quaternion-type-2.c:57:10: error: ‘EXIT_SUCCESS’ undeclared (first use in this function)
/home/cfuria/misc/rosetta/RosettaCodeData/Task/Quaternion-type/C/quaternion-type-2.c.compile/quaternion-type-2.c:57:10: note: each undeclared identifier is reported only once for each function it appears in
