/home/cfuria/misc/rosetta/RosettaCodeData/Task/Horizontal-sundial-calculations/C/horizontal-sundial-calculations.c.compile/horizontal-sundial-calculations.c: In function ‘main’:
/home/cfuria/misc/rosetta/RosettaCodeData/Task/Horizontal-sundial-calculations/C/horizontal-sundial-calculations.c.compile/horizontal-sundial-calculations.c:21:3: warning: ignoring return value of ‘scanf’, declared with attribute warn_unused_result [-Wunused-result]
/home/cfuria/misc/rosetta/RosettaCodeData/Task/Horizontal-sundial-calculations/C/horizontal-sundial-calculations.c.compile/horizontal-sundial-calculations.c:22:3: warning: ignoring return value of ‘scanf’, declared with attribute warn_unused_result [-Wunused-result]
/home/cfuria/misc/rosetta/RosettaCodeData/Task/Horizontal-sundial-calculations/C/horizontal-sundial-calculations.c.compile/horizontal-sundial-calculations.c:23:3: warning: ignoring return value of ‘scanf’, declared with attribute warn_unused_result [-Wunused-result]
