
http://cloc.sourceforge.net v 1.60  T=0.01 s (151.4 files/s, 8025.5 lines/s)
-------------------------------------------------------------------------------
Language                     files          blank        comment           code
-------------------------------------------------------------------------------
C                                1              7              0             46
-------------------------------------------------------------------------------
