
http://cloc.sourceforge.net v 1.60  T=0.01 s (148.9 files/s, 11319.5 lines/s)
-------------------------------------------------------------------------------
Language                     files          blank        comment           code
-------------------------------------------------------------------------------
C                                1             16             14             46
-------------------------------------------------------------------------------
