
http://cloc.sourceforge.net v 1.60  T=0.01 s (156.2 files/s, 4216.8 lines/s)
-------------------------------------------------------------------------------
Language                     files          blank        comment           code
-------------------------------------------------------------------------------
C                                1              5              0             22
-------------------------------------------------------------------------------
