
http://cloc.sourceforge.net v 1.60  T=0.01 s (154.4 files/s, 6175.6 lines/s)
-------------------------------------------------------------------------------
Language                     files          blank        comment           code
-------------------------------------------------------------------------------
C                                1              8              0             32
-------------------------------------------------------------------------------
