
http://cloc.sourceforge.net v 1.60  T=0.01 s (122.7 files/s, 30422.0 lines/s)
-------------------------------------------------------------------------------
Language                     files          blank        comment           code
-------------------------------------------------------------------------------
C                                1             30             21            197
-------------------------------------------------------------------------------
