
http://cloc.sourceforge.net v 1.60  T=0.01 s (148.4 files/s, 10979.1 lines/s)
-------------------------------------------------------------------------------
Language                     files          blank        comment           code
-------------------------------------------------------------------------------
C                                1             13              2             59
-------------------------------------------------------------------------------
