
http://cloc.sourceforge.net v 1.60  T=0.01 s (151.1 files/s, 8009.6 lines/s)
-------------------------------------------------------------------------------
Language                     files          blank        comment           code
-------------------------------------------------------------------------------
C                                1              9              0             44
-------------------------------------------------------------------------------
