libpvm [pid27351] /tmp/pvmd.1000: No such file or directory
libpvm [pid27351] /tmp/pvmd.1000: No such file or directory
libpvm [pid27351] /tmp/pvmd.1000: No such file or directory
libpvm [pid27351]: pvm_parent(): Can't contact local daemon
libpvm [pid27351] /tmp/pvmd.1000: No such file or directory
libpvm [pid27351] /tmp/pvmd.1000: No such file or directory
libpvm [pid27351] /tmp/pvmd.1000: No such file or directory
libpvm [pid27351] /tmp/pvmd.1000: No such file or directory
libpvm [pid27351] /tmp/pvmd.1000: No such file or directory
libpvm [pid27351] /tmp/pvmd.1000: No such file or directory
libpvm [pid27351] /tmp/pvmd.1000: No such file or directory
libpvm [pid27351]: pvm_send(): Can't contact local daemon
libpvm [pid27351] /tmp/pvmd.1000: No such file or directory
libpvm [pid27351] /tmp/pvmd.1000: No such file or directory
libpvm [pid27351] /tmp/pvmd.1000: No such file or directory
libpvm [pid27351] /tmp/pvmd.1000: No such file or directory
libpvm [pid27351] /tmp/pvmd.1000: No such file or directory
libpvm [pid27351] /tmp/pvmd.1000: No such file or directory
libpvm [pid27351] /tmp/pvmd.1000: No such file or directory
libpvm [pid27351]: pvm_send(): Can't contact local daemon
libpvm [pid27351] /tmp/pvmd.1000: No such file or directory
