libpvm [pid27335] /tmp/pvmd.1000: No such file or directory
libpvm [pid27335] /tmp/pvmd.1000: No such file or directory
libpvm [pid27335] /tmp/pvmd.1000: No such file or directory
libpvm [pid27335]: pvm_parent(): Can't contact local daemon
libpvm [pid27335] /tmp/pvmd.1000: No such file or directory
libpvm [pid27335] /tmp/pvmd.1000: No such file or directory
libpvm [pid27335] /tmp/pvmd.1000: No such file or directory
libpvm [pid27335] /tmp/pvmd.1000: No such file or directory
libpvm [pid27335] /tmp/pvmd.1000: No such file or directory
libpvm [pid27335] /tmp/pvmd.1000: No such file or directory
libpvm [pid27335] /tmp/pvmd.1000: No such file or directory
libpvm [pid27335]: pvm_send(): Can't contact local daemon
libpvm [pid27335] /tmp/pvmd.1000: No such file or directory
libpvm [pid27335] /tmp/pvmd.1000: No such file or directory
libpvm [pid27335] /tmp/pvmd.1000: No such file or directory
libpvm [pid27335] /tmp/pvmd.1000: No such file or directory
libpvm [pid27335] /tmp/pvmd.1000: No such file or directory
libpvm [pid27335] /tmp/pvmd.1000: No such file or directory
libpvm [pid27335] /tmp/pvmd.1000: No such file or directory
libpvm [pid27335]: pvm_send(): Can't contact local daemon
libpvm [pid27335] /tmp/pvmd.1000: No such file or directory
