/home/cfuria/misc/rosetta/RosettaCodeData/Task/Chat-server/C/chat-server.c.compile/chat-server.c: In function ‘CloseConnection’:
/home/cfuria/misc/rosetta/RosettaCodeData/Task/Chat-server/C/chat-server.c.compile/chat-server.c:43:35: warning: incompatible implicit declaration of built-in function ‘strlen’ [enabled by default]
/home/cfuria/misc/rosetta/RosettaCodeData/Task/Chat-server/C/chat-server.c.compile/chat-server.c: In function ‘strip’:
/home/cfuria/misc/rosetta/RosettaCodeData/Task/Chat-server/C/chat-server.c.compile/chat-server.c:64:9: warning: incompatible implicit declaration of built-in function ‘strchr’ [enabled by default]
/home/cfuria/misc/rosetta/RosettaCodeData/Task/Chat-server/C/chat-server.c.compile/chat-server.c: In function ‘RelayText’:
/home/cfuria/misc/rosetta/RosettaCodeData/Task/Chat-server/C/chat-server.c.compile/chat-server.c:87:11: warning: incompatible implicit declaration of built-in function ‘strchr’ [enabled by default]
/home/cfuria/misc/rosetta/RosettaCodeData/Task/Chat-server/C/chat-server.c.compile/chat-server.c:94:13: warning: incompatible implicit declaration of built-in function ‘strncpy’ [enabled by default]
/home/cfuria/misc/rosetta/RosettaCodeData/Task/Chat-server/C/chat-server.c.compile/chat-server.c:103:21: warning: field precision specifier ‘.*’ expects argument of type ‘int’, but argument 4 has type ‘long int’ [-Wformat]
/home/cfuria/misc/rosetta/RosettaCodeData/Task/Chat-server/C/chat-server.c.compile/chat-server.c:114:42: warning: incompatible implicit declaration of built-in function ‘strlen’ [enabled by default]
/home/cfuria/misc/rosetta/RosettaCodeData/Task/Chat-server/C/chat-server.c.compile/chat-server.c:125:5: warning: incompatible implicit declaration of built-in function ‘strcpy’ [enabled by default]
/home/cfuria/misc/rosetta/RosettaCodeData/Task/Chat-server/C/chat-server.c.compile/chat-server.c: In function ‘ChatLoop’:
/home/cfuria/misc/rosetta/RosettaCodeData/Task/Chat-server/C/chat-server.c.compile/chat-server.c:178:21: warning: passing argument 2 of ‘accept’ from incompatible pointer type [enabled by default]
/usr/include/x86_64-linux-gnu/sys/socket.h:214:12: note: expected ‘struct sockaddr * __restrict__’ but argument is of type ‘struct sockaddr_in *’
/home/cfuria/misc/rosetta/RosettaCodeData/Task/Chat-server/C/chat-server.c.compile/chat-server.c:194:33: warning: format ‘%s’ expects argument of type ‘char *’, but argument 3 has type ‘int’ [-Wformat]
/home/cfuria/misc/rosetta/RosettaCodeData/Task/Chat-server/C/chat-server.c.compile/chat-server.c: In function ‘main’:
/home/cfuria/misc/rosetta/RosettaCodeData/Task/Chat-server/C/chat-server.c.compile/chat-server.c:234:5: warning: passing argument 2 of ‘bind’ from incompatible pointer type [enabled by default]
/usr/include/x86_64-linux-gnu/sys/socket.h:115:12: note: expected ‘const struct sockaddr *’ but argument is of type ‘struct sockaddr_in *’
