/home/cfuria/misc/rosetta/RosettaCodeData/Task/Standard-deviation/C/standard-deviation-2.c.compile/standard-deviation-2.c: In function ‘main’:
/home/cfuria/misc/rosetta/RosettaCodeData/Task/Standard-deviation/C/standard-deviation-2.c.compile/standard-deviation-2.c:6:3: error: unknown type name ‘StatObject’
/home/cfuria/misc/rosetta/RosettaCodeData/Task/Standard-deviation/C/standard-deviation-2.c.compile/standard-deviation-2.c:6:3: warning: implicit declaration of function ‘NewStatObject’ [-Wimplicit-function-declaration]
/home/cfuria/misc/rosetta/RosettaCodeData/Task/Standard-deviation/C/standard-deviation-2.c.compile/standard-deviation-2.c:6:34: error: ‘STDDEV’ undeclared (first use in this function)
/home/cfuria/misc/rosetta/RosettaCodeData/Task/Standard-deviation/C/standard-deviation-2.c.compile/standard-deviation-2.c:6:34: note: each undeclared identifier is reported only once for each function it appears in
/home/cfuria/misc/rosetta/RosettaCodeData/Task/Standard-deviation/C/standard-deviation-2.c.compile/standard-deviation-2.c:9:5: warning: implicit declaration of function ‘printf’ [-Wimplicit-function-declaration]
/home/cfuria/misc/rosetta/RosettaCodeData/Task/Standard-deviation/C/standard-deviation-2.c.compile/standard-deviation-2.c:9:5: warning: incompatible implicit declaration of built-in function ‘printf’ [enabled by default]
/home/cfuria/misc/rosetta/RosettaCodeData/Task/Standard-deviation/C/standard-deviation-2.c.compile/standard-deviation-2.c:9:5: warning: implicit declaration of function ‘stat_object_add’ [-Wimplicit-function-declaration]
/home/cfuria/misc/rosetta/RosettaCodeData/Task/Standard-deviation/C/standard-deviation-2.c.compile/standard-deviation-2.c:9:5: warning: format ‘%lf’ expects argument of type ‘double’, but argument 3 has type ‘int’ [-Wformat]
/home/cfuria/misc/rosetta/RosettaCodeData/Task/Standard-deviation/C/standard-deviation-2.c.compile/standard-deviation-2.c:11:3: warning: implicit declaration of function ‘FREE_STAT_OBJECT’ [-Wimplicit-function-declaration]
