
http://cloc.sourceforge.net v 1.60  T=0.01 s (152.0 files/s, 6989.7 lines/s)
-------------------------------------------------------------------------------
Language                     files          blank        comment           code
-------------------------------------------------------------------------------
C                                1              9              0             37
-------------------------------------------------------------------------------
