
http://cloc.sourceforge.net v 1.60  T=0.01 s (144.6 files/s, 13298.7 lines/s)
-------------------------------------------------------------------------------
Language                     files          blank        comment           code
-------------------------------------------------------------------------------
C                                1             17              1             74
-------------------------------------------------------------------------------
