
http://cloc.sourceforge.net v 1.60  T=0.01 s (153.9 files/s, 6308.6 lines/s)
-------------------------------------------------------------------------------
Language                     files          blank        comment           code
-------------------------------------------------------------------------------
C                                1             11              1             29
-------------------------------------------------------------------------------
