
http://cloc.sourceforge.net v 1.60  T=0.01 s (148.6 files/s, 8913.9 lines/s)
-------------------------------------------------------------------------------
Language                     files          blank        comment           code
-------------------------------------------------------------------------------
C                                1             10              0             50
-------------------------------------------------------------------------------
