
http://cloc.sourceforge.net v 1.60  T=0.01 s (157.8 files/s, 3787.9 lines/s)
-------------------------------------------------------------------------------
Language                     files          blank        comment           code
-------------------------------------------------------------------------------
C                                1              3              0             21
-------------------------------------------------------------------------------
