
http://cloc.sourceforge.net v 1.60  T=0.01 s (141.8 files/s, 14322.3 lines/s)
-------------------------------------------------------------------------------
Language                     files          blank        comment           code
-------------------------------------------------------------------------------
C                                1             16              7             78
-------------------------------------------------------------------------------
