
http://cloc.sourceforge.net v 1.60  T=0.01 s (155.2 files/s, 5121.8 lines/s)
-------------------------------------------------------------------------------
Language                     files          blank        comment           code
-------------------------------------------------------------------------------
C                                1              4              1             28
-------------------------------------------------------------------------------
