
http://cloc.sourceforge.net v 1.60  T=0.01 s (144.0 files/s, 12239.2 lines/s)
-------------------------------------------------------------------------------
Language                     files          blank        comment           code
-------------------------------------------------------------------------------
C                                1              8              2             75
-------------------------------------------------------------------------------
