
http://cloc.sourceforge.net v 1.60  T=0.01 s (135.3 files/s, 21238.7 lines/s)
-------------------------------------------------------------------------------
Language                     files          blank        comment           code
-------------------------------------------------------------------------------
C                                1             25             41             91
-------------------------------------------------------------------------------
