
http://cloc.sourceforge.net v 1.60  T=0.01 s (159.8 files/s, 1758.0 lines/s)
-------------------------------------------------------------------------------
Language                     files          blank        comment           code
-------------------------------------------------------------------------------
C                                1              0              0             11
-------------------------------------------------------------------------------
