
http://cloc.sourceforge.net v 1.60  T=0.01 s (151.1 files/s, 7253.2 lines/s)
-------------------------------------------------------------------------------
Language                     files          blank        comment           code
-------------------------------------------------------------------------------
C                                1              5              0             43
-------------------------------------------------------------------------------
